arcade/src/wave.vcd
$date
	Tue May 07 11:19:00 2024
$end
$version
	Icarus Verilog
$end
$timescale
	1ps
$end
$scope module Top_tb $end
$var wire 7 ! ten [6:0] $end
$var wire 7 " one [6:0] $end
$var wire 7 # led [6:0] $end
$var wire 7 $ hundred [6:0] $end
$var wire 7 % guess [6:0] $end
$var reg 1 & clk $end
$var reg 7 ' dip [6:0] $end
$var reg 1 ( restart $end
$var reg 1 ) rstn $end
$var reg 1 * start $end
$var reg 1 + stop $end
$scope module uut $end
$var wire 1 & clk $end
$var wire 7 , dip [6:0] $end
$var wire 8 - init_val_cs_wire [7:0] $end
$var wire 1 ( restart $end
$var wire 1 ) rstn $end
$var wire 1 * start $end
$var wire 1 + stop $end
$var wire 7 . ten [6:0] $end
$var wire 7 / sum [6:0] $end
$var wire 1 0 stop_detect $end
$var wire 1 1 start_detect $end
$var wire 1 2 restart_detect $end
$var wire 7 3 randnum_in [6:0] $end
$var wire 7 4 randnum [6:0] $end
$var wire 7 5 one [6:0] $end
$var wire 7 6 hundred [6:0] $end
$var parameter 2 7 GEN_NUM $end
$var parameter 2 8 SET_NUM $end
$var parameter 2 9 SHOW_NUM $end
$var reg 2 : cs [1:0] $end
$var reg 7 ; guess [6:0] $end
$var reg 7 < guess_init [6:0] $end
$var reg 8 = init_val_cs [7:0] $end
$var reg 8 > init_val_ns [7:0] $end
$var reg 7 ? led [6:0] $end
$var reg 2 @ ns [1:0] $end
$var reg 1 A sum_flag $end
$scope module u1 $end
$var wire 1 & clk $end
$var wire 4 B div [3:0] $end
$var wire 1 ) rstn $end
$var reg 32 C counter [31:0] $end
$var reg 7 D lfsr [6:0] $end
$var reg 8 E random_num [7:0] $end
$upscope $end
$scope module u2 $end
$var wire 8 F dipsw7 [7:0] $end
$var wire 4 G ten_int [3:0] $end
$var wire 4 H one_int [3:0] $end
$var wire 4 I hundred_int [3:0] $end
$var reg 7 J hundred [6:0] $end
$var reg 7 K one [6:0] $end
$var reg 7 L ten [6:0] $end
$scope module u1 $end
$var wire 8 M binary [7:0] $end
$var reg 4 N Hundreds [3:0] $end
$var reg 4 O Ones [3:0] $end
$var reg 4 P Tens [3:0] $end
$var integer 32 Q i [31:0] $end
$upscope $end
$upscope $end
$scope module u3 $end
$var wire 8 R dipsw7 [7:0] $end
$var wire 4 S ten_int [3:0] $end
$var wire 4 T one_int [3:0] $end
$var wire 4 U hundred_int [3:0] $end
$var reg 7 V hundred [6:0] $end
$var reg 7 W one [6:0] $end
$var reg 7 X ten [6:0] $end
$scope module u1 $end
$var wire 8 Y binary [7:0] $end
$var reg 4 Z Hundreds [3:0] $end
$var reg 4 [ Ones [3:0] $end
$var reg 4 \ Tens [3:0] $end
$var integer 32 ] i [31:0] $end
$upscope $end
$upscope $end
$scope module u4 $end
$var wire 1 ) anrst $end
$var wire 1 & clk $end
$var wire 1 * in $end
$var reg 1 ^ both $end
$var reg 1 1 falling $end
$var reg 1 _ in_d $end
$var reg 1 ` rising $end
$upscope $end
$scope module u5 $end
$var wire 1 ) anrst $end
$var wire 1 & clk $end
$var wire 1 + in $end
$var reg 1 a both $end
$var reg 1 0 falling $end
$var reg 1 b in_d $end
$var reg 1 c rising $end
$upscope $end
$scope module u6 $end
$var wire 1 ) anrst $end
$var wire 1 & clk $end
$var wire 1 ( in $end
$var reg 1 d both $end
$var reg 1 2 falling $end
$var reg 1 e in_d $end
$var reg 1 f rising $end
$upscope $end
$upscope $end
$upscope $end
$enddefinitions $end
$comment Show the parameter values. $end
$dumpall
b10 9
b0 8
b1 7
$end
#0
$dumpvars
0f
0e
0d
0c
0b
0a
0`
0_
0^
b11111111111111111111111111111111 ]
b0xxx \
bx [
b0 Z
b0xxxxxxx Y
b1111111 X
b1111111 W
b1000000 V
b0 U
bx T
b0xxx S
b0xxxxxxx R
b11111111111111111111111111111111 Q
b0 P
b0 O
b10 N
b11001000 M
b1000000 L
b1000000 K
b100100 J
b10 I
b0 H
b0 G
b11001000 F
bx E
b1000000 D
b0 C
b1001 B
0A
b0 @
b0 ?
b11001000 >
b11001000 =
bx <
b1111111 ;
b0 :
b100100 6
b1000000 5
bx 4
b1111111 3
02
01
00
b0 /
b1000000 .
b11001000 -
b0 ,
0+
0*
0)
0(
b0 '
0&
b1111111 %
b100100 $
b0 #
b1000000 "
b1000000 !
$end
#5000
1&
#10000
0&
1)
#15000
b1 C
1&
#20000
0&
#25000
b10 C
1&
#30000
b100 /
0&
b1010101 '
b1010101 ,
#35000
b11 C
b1010101 #
b1010101 ?
b101010 %
b101010 ;
1&
#40000
1^
1`
0&
1*
#45000
0^
0`
1_
b100 C
1&
#50000
b1 @
1^
11
0&
0*
#55000
0^
01
b11000100 >
b101 C
0_
1A
b1 :
1&
#60000
0&
#65000
b1111001 $
b1111001 6
b1111001 J
b11000 !
b11000 .
b11000 L
b10 "
b10 5
b10 K
b1001 G
b1001 P
b110 H
b110 O
b11111111111111111111111111111111 Q
b1 I
b1 N
b11000100 -
b11000100 F
b11000100 M
b11000100 =
0A
b1010101 <
b1111111 %
b1111111 ;
b110 C
1&
#70000
0&
#75000
b111 C
1&
#80000
0&
#85000
b1000 C
1&
#90000
0&
#95000
b1001 C
1&
#100000
0&
#105000
b1010 C
1&
#110000
0&
#115000
b1011 C
1&
#120000
0&
#125000
b1100 C
1&
#130000
0&
#135000
b1101 C
1&
#140000
0&
#145000
b1110 C
1&
#150000
1a
1c
0&
1+
#155000
0a
0c
b1111 C
1b
1&
#160000
b10 @
1a
10
0&
0+
#165000
0a
00
b10 :
0b
b10000 C
1&
#170000
0&
#175000
b10001 C
1&
#180000
0&
#185000
b10010 C
1&
#190000
1d
1f
0&
1(
#195000
0d
0f
b10011 C
1e
1&
#200000
b0 @
1d
12
0&
0(
#205000
0d
02
b0 :
0e
b10100 C
1&
#210000
0&
#215000
b10101 C
b101010 %
b101010 ;
1&
#220000
b11 /
0&
b101010 '
b101010 ,
#225000
b1010101 %
b1010101 ;
b101010 #
b101010 ?
b10110 C
1&
#230000
1^
1`
0&
1*
#235000
0^
0`
b10111 C
1_
1&
#240000
b1 @
1^
11
0&
0*
#245000
b11000001 >
0^
01
b1 :
1A
0_
b11000 C
1&
#250000
0&
#255000
b110000 "
b110000 5
b110000 K
b11111111111111111111111111111111 Q
b11 H
b11 O
b1001 G
b1001 P
b1 I
b1 N
b11001 C
b101010 <
b1111111 %
b1111111 ;
0A
b11000001 -
b11000001 F
b11000001 M
b11000001 =
1&
#260000
0&
#265000
b11010 C
1&
#270000
0&
#275000
b11011 C
1&
#280000
0&
#285000
b11100 C
1&
#290000
0&
#295000
b11101 C
1&
#300000
0&
#305000
b11110 C
1&
#310000
0&
#315000
b11111 C
1&
#320000
0&
#325000
b100000 C
1&
#330000
0&
#335000
b100001 C
1&
#340000
1a
1c
0&
1+
#345000
0a
0c
1b
b100010 C
1&
#350000
b10 @
1a
10
0&
0+
#355000
0a
00
b100011 C
0b
b10 :
1&
#360000
0&
#365000
b100100 C
1&
#370000
0&
#375000
b100101 C
1&
#380000
b100 /
0&
b1100110 '
b1100110 ,
#385000
b100110 C
1&
#390000
1^
1`
0&
1*
#395000
0^
0`
b100111 C
1_
1&
#400000
1^
11
0&
0*
#405000
0^
01
0_
b101000 C
1&
#410000
0&
#415000
b101001 C
1&
#420000
0&
#425000
b101010 C
1&
#430000
0&
#435000
b101011 C
1&
#440000
0&
#445000
b101100 C
1&
#450000
0&
#455000
b101101 C
1&
#460000
0&
#465000
b101110 C
1&
#470000
0&
#475000
b101111 C
1&
#480000
0&
#485000
b110000 C
1&
#490000
0&
#495000
b110001 C
1&
#500000
0&
#505000
b110010 C
1&
#510000
1a
1c
0&
1+
#515000
0a
0c
b110011 C
1b
1&
#520000
1a
10
0&
0+
#525000
0a
00
0b
b110100 C
1&
#530000
0&
#535000
b110101 C
1&
#540000
0&
#545000
b110110 C
1&
